{
  "kind": "collectionType",
  "collectionName": "materials",
  "info": {
    "name": "materials",
    "description": ""
  },
  "options": {
    "increments": true,
    "timestamps": true,
    "draftAndPublish": true
  },
  "attributes": {
    "title_original": {
      "type": "string"
    },
    "title_spanish": {
      "type": "string"
    },
    "title_commercial": {
      "type": "string"
    },
    "duration": {
      "type": "time"
    },
    "chapters": {
      "type": "json"
    },
    "features_material_type": {
      "type": "string"
    },
    "features_content_type": {
      "type": "string"
    },
    "features_cost_center": {
      "type": "string"
    },
    "features_material_gender": {
      "type": "string"
    },
    "features_classification": {
      "type": "string"
    },
    "code": {
      "type": "string",
      "maxLength": 10,
      "unique": true,
      "required": true
    },
    "transmission_channel": {
      "type": "json"
    },
    "status": {
      "type": "boolean",
      "default": true
    }
  }
}
